{
  "a": {
    "plain": "/local/corpora/sts2015-interpretability/for_official_evaluation/train/STSint.input.headlines.sent1.txt",
    "chunked": "/local/corpora/sts2015-interpretability/for_official_evaluation/train/STSint.input.headlines.sent1.chunk_ours.txt",
    "annotated": "/local/corpora/sts2015-interpretability/for_official_evaluation/train/STSint.annot.headlines.sent1.txt"
  },
  "b": {
    "plain": "/local/corpora/sts2015-interpretability/for_official_evaluation/train/STSint.input.headlines.sent2.txt",
    "chunked": "/local/corpora/sts2015-interpretability/for_official_evaluation/train/STSint.input.headlines.sent2.chunk_ours.txt",
    "annotated": "/local/corpora/sts2015-interpretability/for_official_evaluation/train/STSint.annot.headlines.sent2.txt"
  },
  "word2vec_bin": "/local/models/word2vec-models/GoogleNews-vectors-negative300.bin"
}
